^C:\USERS\DASHA\DESKTOP\TEST_TASK_SOLOVIOVA\SOURCE\COLLISIONHANDLER.CPP
C:\USERS\DASHA\DESKTOP\TEST_TASK_SOLOVIOVA\SOURCE\COLLISIONHANDLER.H
C:\USERS\DASHA\DESKTOP\TEST_TASK_SOLOVIOVA\SOURCE\MOVINGOBJECTSDATA.H
C:\USERS\DASHA\DESKTOP\TEST_TASK_SOLOVIOVA\SOURCE\VECTOR2D.H
D:\PROGRAMS\IDES\VISUALSTUDIO\VC\TOOLS\MSVC\14.23.28105\INCLUDE\VECTOR
D:\PROGRAMS\IDES\VISUALSTUDIO\VC\TOOLS\MSVC\14.23.28105\INCLUDE\YVALS_CORE.H
D:\PROGRAMS\IDES\VISUALSTUDIO\VC\TOOLS\MSVC\14.23.28105\INCLUDE\CRTDEFS.H
D:\PROGRAMS\IDES\VISUALSTUDIO\VC\TOOLS\MSVC\14.23.28105\INCLUDE\VCRUNTIME.H
D:\PROGRAMS\IDES\VISUALSTUDIO\VC\TOOLS\MSVC\14.23.28105\INCLUDE\SAL.H
D:\PROGRAMS\IDES\VISUALSTUDIO\VC\TOOLS\MSVC\14.23.28105\INCLUDE\CONCURRENCYSAL.H
D:\PROGRAMS\IDES\VISUALSTUDIO\VC\TOOLS\MSVC\14.23.28105\INCLUDE\VADEFS.H
C:\PROGRAM FILES (X86)\WINDOWS KITS\10\INCLUDE\10.0.18362.0\UCRT\CORECRT.H
D:\PROGRAMS\IDES\VISUALSTUDIO\VC\TOOLS\MSVC\14.23.28105\INCLUDE\XKEYCHECK.H
D:\PROGRAMS\IDES\VISUALSTUDIO\VC\TOOLS\MSVC\14.23.28105\INCLUDE\XMEMORY
D:\PROGRAMS\IDES\VISUALSTUDIO\VC\TOOLS\MSVC\14.23.28105\INCLUDE\CSTDINT
D:\PROGRAMS\IDES\VISUALSTUDIO\VC\TOOLS\MSVC\14.23.28105\INCLUDE\YVALS.H
C:\PROGRAM FILES (X86)\WINDOWS KITS\10\INCLUDE\10.0.18362.0\UCRT\CRTDBG.H
D:\PROGRAMS\IDES\VISUALSTUDIO\VC\TOOLS\MSVC\14.23.28105\INCLUDE\VCRUNTIME_NEW_DEBUG.H
D:\PROGRAMS\IDES\VISUALSTUDIO\VC\TOOLS\MSVC\14.23.28105\INCLUDE\VCRUNTIME_NEW.H
D:\PROGRAMS\IDES\VISUALSTUDIO\VC\TOOLS\MSVC\14.23.28105\INCLUDE\USE_ANSI.H
D:\PROGRAMS\IDES\VISUALSTUDIO\VC\TOOLS\MSVC\14.23.28105\INCLUDE\STDINT.H
D:\PROGRAMS\IDES\VISUALSTUDIO\VC\TOOLS\MSVC\14.23.28105\INCLUDE\CSTDLIB
C:\PROGRAM FILES (X86)\WINDOWS KITS\10\INCLUDE\10.0.18362.0\UCRT\MATH.H
C:\PROGRAM FILES (X86)\WINDOWS KITS\10\INCLUDE\10.0.18362.0\UCRT\CORECRT_MATH.H
C:\PROGRAM FILES (X86)\WINDOWS KITS\10\INCLUDE\10.0.18362.0\UCRT\STDLIB.H
C:\PROGRAM FILES (X86)\WINDOWS KITS\10\INCLUDE\10.0.18362.0\UCRT\CORECRT_MALLOC.H
C:\PROGRAM FILES (X86)\WINDOWS KITS\10\INCLUDE\10.0.18362.0\UCRT\CORECRT_SEARCH.H
C:\PROGRAM FILES (X86)\WINDOWS KITS\10\INCLUDE\10.0.18362.0\UCRT\STDDEF.H
C:\PROGRAM FILES (X86)\WINDOWS KITS\10\INCLUDE\10.0.18362.0\UCRT\CORECRT_WSTDLIB.H
D:\PROGRAMS\IDES\VISUALSTUDIO\VC\TOOLS\MSVC\14.23.28105\INCLUDE\LIMITS.H
D:\PROGRAMS\IDES\VISUALSTUDIO\VC\TOOLS\MSVC\14.23.28105\INCLUDE\LIMITS
D:\PROGRAMS\IDES\VISUALSTUDIO\VC\TOOLS\MSVC\14.23.28105\INCLUDE\CFLOAT
C:\PROGRAM FILES (X86)\WINDOWS KITS\10\INCLUDE\10.0.18362.0\UCRT\FLOAT.H
D:\PROGRAMS\IDES\VISUALSTUDIO\VC\TOOLS\MSVC\14.23.28105\INCLUDE\CLIMITS
D:\PROGRAMS\IDES\VISUALSTUDIO\VC\TOOLS\MSVC\14.23.28105\INCLUDE\CWCHAR
D:\PROGRAMS\IDES\VISUALSTUDIO\VC\TOOLS\MSVC\14.23.28105\INCLUDE\CSTDIO
C:\PROGRAM FILES (X86)\WINDOWS KITS\10\INCLUDE\10.0.18362.0\UCRT\STDIO.H
C:\PROGRAM FILES (X86)\WINDOWS KITS\10\INCLUDE\10.0.18362.0\UCRT\CORECRT_WSTDIO.H
C:\PROGRAM FILES (X86)\WINDOWS KITS\10\INCLUDE\10.0.18362.0\UCRT\CORECRT_STDIO_CONFIG.H
C:\PROGRAM FILES (X86)\WINDOWS KITS\10\INCLUDE\10.0.18362.0\UCRT\WCHAR.H
C:\PROGRAM FILES (X86)\WINDOWS KITS\10\INCLUDE\10.0.18362.0\UCRT\CORECRT_MEMCPY_S.H
C:\PROGRAM FILES (X86)\WINDOWS KITS\10\INCLUDE\10.0.18362.0\UCRT\ERRNO.H
D:\PROGRAMS\IDES\VISUALSTUDIO\VC\TOOLS\MSVC\14.23.28105\INCLUDE\VCRUNTIME_STRING.H
C:\PROGRAM FILES (X86)\WINDOWS KITS\10\INCLUDE\10.0.18362.0\UCRT\CORECRT_WCONIO.H
C:\PROGRAM FILES (X86)\WINDOWS KITS\10\INCLUDE\10.0.18362.0\UCRT\CORECRT_WCTYPE.H
C:\PROGRAM FILES (X86)\WINDOWS KITS\10\INCLUDE\10.0.18362.0\UCRT\CORECRT_WDIRECT.H
C:\PROGRAM FILES (X86)\WINDOWS KITS\10\INCLUDE\10.0.18362.0\UCRT\CORECRT_WIO.H
C:\PROGRAM FILES (X86)\WINDOWS KITS\10\INCLUDE\10.0.18362.0\UCRT\CORECRT_SHARE.H
C:\PROGRAM FILES (X86)\WINDOWS KITS\10\INCLUDE\10.0.18362.0\UCRT\CORECRT_WPROCESS.H
C:\PROGRAM FILES (X86)\WINDOWS KITS\10\INCLUDE\10.0.18362.0\UCRT\CORECRT_WSTRING.H
C:\PROGRAM FILES (X86)\WINDOWS KITS\10\INCLUDE\10.0.18362.0\UCRT\CORECRT_WTIME.H
C:\PROGRAM FILES (X86)\WINDOWS KITS\10\INCLUDE\10.0.18362.0\UCRT\SYS\STAT.H
C:\PROGRAM FILES (X86)\WINDOWS KITS\10\INCLUDE\10.0.18362.0\UCRT\SYS\TYPES.H
D:\PROGRAMS\IDES\VISUALSTUDIO\VC\TOOLS\MSVC\14.23.28105\INCLUDE\XSTDDEF
D:\PROGRAMS\IDES\VISUALSTUDIO\VC\TOOLS\MSVC\14.23.28105\INCLUDE\CSTDDEF
D:\PROGRAMS\IDES\VISUALSTUDIO\VC\TOOLS\MSVC\14.23.28105\INCLUDE\XTR1COMMON
D:\PROGRAMS\IDES\VISUALSTUDIO\VC\TOOLS\MSVC\14.23.28105\INCLUDE\INITIALIZER_LIST
D:\PROGRAMS\IDES\VISUALSTUDIO\VC\TOOLS\MSVC\14.23.28105\INCLUDE\NEW
D:\PROGRAMS\IDES\VISUALSTUDIO\VC\TOOLS\MSVC\14.23.28105\INCLUDE\EXCEPTION
D:\PROGRAMS\IDES\VISUALSTUDIO\VC\TOOLS\MSVC\14.23.28105\INCLUDE\TYPE_TRAITS
C:\PROGRAM FILES (X86)\WINDOWS KITS\10\INCLUDE\10.0.18362.0\UCRT\MALLOC.H
D:\PROGRAMS\IDES\VISUALSTUDIO\VC\TOOLS\MSVC\14.23.28105\INCLUDE\VCRUNTIME_EXCEPTION.H
D:\PROGRAMS\IDES\VISUALSTUDIO\VC\TOOLS\MSVC\14.23.28105\INCLUDE\EH.H
C:\PROGRAM FILES (X86)\WINDOWS KITS\10\INCLUDE\10.0.18362.0\UCRT\CORECRT_TERMINATE.H
D:\PROGRAMS\IDES\VISUALSTUDIO\VC\TOOLS\MSVC\14.23.28105\INCLUDE\XATOMIC.H
D:\PROGRAMS\IDES\VISUALSTUDIO\VC\TOOLS\MSVC\14.23.28105\INCLUDE\INTRIN0.H
D:\PROGRAMS\IDES\VISUALSTUDIO\VC\TOOLS\MSVC\14.23.28105\INCLUDE\XUTILITY
D:\PROGRAMS\IDES\VISUALSTUDIO\VC\TOOLS\MSVC\14.23.28105\INCLUDE\CSTRING
C:\PROGRAM FILES (X86)\WINDOWS KITS\10\INCLUDE\10.0.18362.0\UCRT\STRING.H
C:\PROGRAM FILES (X86)\WINDOWS KITS\10\INCLUDE\10.0.18362.0\UCRT\CORECRT_MEMORY.H
D:\PROGRAMS\IDES\VISUALSTUDIO\VC\TOOLS\MSVC\14.23.28105\INCLUDE\UTILITY
D:\PROGRAMS\IDES\VISUALSTUDIO\VC\TOOLS\MSVC\14.23.28105\INCLUDE\SET
D:\PROGRAMS\IDES\VISUALSTUDIO\VC\TOOLS\MSVC\14.23.28105\INCLUDE\XTREE
C:\USERS\DASHA\DESKTOP\TEST_TASK_SOLOVIOVA\SOURCE\SPRITESDATA.H
C:\USERS\DASHA\DESKTOP\TEST_TASK_SOLOVIOVA\SOURCE\FRAMEWORK.H
C:\USERS\DASHA\DESKTOP\TEST_TASK_SOLOVIOVA\SOURCE\SCREENSPACE.H
^C:\USERS\DASHA\DESKTOP\TEST_TASK_SOLOVIOVA\SOURCE\GRID.CPP
C:\USERS\DASHA\DESKTOP\TEST_TASK_SOLOVIOVA\SOURCE\FRAMEWORK.H
D:\PROGRAMS\IDES\VISUALSTUDIO\VC\TOOLS\MSVC\14.23.28105\INCLUDE\VECTOR
D:\PROGRAMS\IDES\VISUALSTUDIO\VC\TOOLS\MSVC\14.23.28105\INCLUDE\YVALS_CORE.H
D:\PROGRAMS\IDES\VISUALSTUDIO\VC\TOOLS\MSVC\14.23.28105\INCLUDE\CRTDEFS.H
D:\PROGRAMS\IDES\VISUALSTUDIO\VC\TOOLS\MSVC\14.23.28105\INCLUDE\VCRUNTIME.H
D:\PROGRAMS\IDES\VISUALSTUDIO\VC\TOOLS\MSVC\14.23.28105\INCLUDE\SAL.H
D:\PROGRAMS\IDES\VISUALSTUDIO\VC\TOOLS\MSVC\14.23.28105\INCLUDE\CONCURRENCYSAL.H
D:\PROGRAMS\IDES\VISUALSTUDIO\VC\TOOLS\MSVC\14.23.28105\INCLUDE\VADEFS.H
C:\PROGRAM FILES (X86)\WINDOWS KITS\10\INCLUDE\10.0.18362.0\UCRT\CORECRT.H
D:\PROGRAMS\IDES\VISUALSTUDIO\VC\TOOLS\MSVC\14.23.28105\INCLUDE\XKEYCHECK.H
D:\PROGRAMS\IDES\VISUALSTUDIO\VC\TOOLS\MSVC\14.23.28105\INCLUDE\XMEMORY
D:\PROGRAMS\IDES\VISUALSTUDIO\VC\TOOLS\MSVC\14.23.28105\INCLUDE\CSTDINT
D:\PROGRAMS\IDES\VISUALSTUDIO\VC\TOOLS\MSVC\14.23.28105\INCLUDE\YVALS.H
C:\PROGRAM FILES (X86)\WINDOWS KITS\10\INCLUDE\10.0.18362.0\UCRT\CRTDBG.H
D:\PROGRAMS\IDES\VISUALSTUDIO\VC\TOOLS\MSVC\14.23.28105\INCLUDE\VCRUNTIME_NEW_DEBUG.H
D:\PROGRAMS\IDES\VISUALSTUDIO\VC\TOOLS\MSVC\14.23.28105\INCLUDE\VCRUNTIME_NEW.H
D:\PROGRAMS\IDES\VISUALSTUDIO\VC\TOOLS\MSVC\14.23.28105\INCLUDE\USE_ANSI.H
D:\PROGRAMS\IDES\VISUALSTUDIO\VC\TOOLS\MSVC\14.23.28105\INCLUDE\STDINT.H
D:\PROGRAMS\IDES\VISUALSTUDIO\VC\TOOLS\MSVC\14.23.28105\INCLUDE\CSTDLIB
C:\PROGRAM FILES (X86)\WINDOWS KITS\10\INCLUDE\10.0.18362.0\UCRT\MATH.H
C:\PROGRAM FILES (X86)\WINDOWS KITS\10\INCLUDE\10.0.18362.0\UCRT\CORECRT_MATH.H
C:\PROGRAM FILES (X86)\WINDOWS KITS\10\INCLUDE\10.0.18362.0\UCRT\STDLIB.H
C:\PROGRAM FILES (X86)\WINDOWS KITS\10\INCLUDE\10.0.18362.0\UCRT\CORECRT_MALLOC.H
C:\PROGRAM FILES (X86)\WINDOWS KITS\10\INCLUDE\10.0.18362.0\UCRT\CORECRT_SEARCH.H
C:\PROGRAM FILES (X86)\WINDOWS KITS\10\INCLUDE\10.0.18362.0\UCRT\STDDEF.H
C:\PROGRAM FILES (X86)\WINDOWS KITS\10\INCLUDE\10.0.18362.0\UCRT\CORECRT_WSTDLIB.H
D:\PROGRAMS\IDES\VISUALSTUDIO\VC\TOOLS\MSVC\14.23.28105\INCLUDE\LIMITS.H
D:\PROGRAMS\IDES\VISUALSTUDIO\VC\TOOLS\MSVC\14.23.28105\INCLUDE\LIMITS
D:\PROGRAMS\IDES\VISUALSTUDIO\VC\TOOLS\MSVC\14.23.28105\INCLUDE\CFLOAT
C:\PROGRAM FILES (X86)\WINDOWS KITS\10\INCLUDE\10.0.18362.0\UCRT\FLOAT.H
D:\PROGRAMS\IDES\VISUALSTUDIO\VC\TOOLS\MSVC\14.23.28105\INCLUDE\CLIMITS
D:\PROGRAMS\IDES\VISUALSTUDIO\VC\TOOLS\MSVC\14.23.28105\INCLUDE\CWCHAR
D:\PROGRAMS\IDES\VISUALSTUDIO\VC\TOOLS\MSVC\14.23.28105\INCLUDE\CSTDIO
C:\PROGRAM FILES (X86)\WINDOWS KITS\10\INCLUDE\10.0.18362.0\UCRT\STDIO.H
C:\PROGRAM FILES (X86)\WINDOWS KITS\10\INCLUDE\10.0.18362.0\UCRT\CORECRT_WSTDIO.H
C:\PROGRAM FILES (X86)\WINDOWS KITS\10\INCLUDE\10.0.18362.0\UCRT\CORECRT_STDIO_CONFIG.H
C:\PROGRAM FILES (X86)\WINDOWS KITS\10\INCLUDE\10.0.18362.0\UCRT\WCHAR.H
C:\PROGRAM FILES (X86)\WINDOWS KITS\10\INCLUDE\10.0.18362.0\UCRT\CORECRT_MEMCPY_S.H
C:\PROGRAM FILES (X86)\WINDOWS KITS\10\INCLUDE\10.0.18362.0\UCRT\ERRNO.H
D:\PROGRAMS\IDES\VISUALSTUDIO\VC\TOOLS\MSVC\14.23.28105\INCLUDE\VCRUNTIME_STRING.H
C:\PROGRAM FILES (X86)\WINDOWS KITS\10\INCLUDE\10.0.18362.0\UCRT\CORECRT_WCONIO.H
C:\PROGRAM FILES (X86)\WINDOWS KITS\10\INCLUDE\10.0.18362.0\UCRT\CORECRT_WCTYPE.H
C:\PROGRAM FILES (X86)\WINDOWS KITS\10\INCLUDE\10.0.18362.0\UCRT\CORECRT_WDIRECT.H
C:\PROGRAM FILES (X86)\WINDOWS KITS\10\INCLUDE\10.0.18362.0\UCRT\CORECRT_WIO.H
C:\PROGRAM FILES (X86)\WINDOWS KITS\10\INCLUDE\10.0.18362.0\UCRT\CORECRT_SHARE.H
C:\PROGRAM FILES (X86)\WINDOWS KITS\10\INCLUDE\10.0.18362.0\UCRT\CORECRT_WPROCESS.H
C:\PROGRAM FILES (X86)\WINDOWS KITS\10\INCLUDE\10.0.18362.0\UCRT\CORECRT_WSTRING.H
C:\PROGRAM FILES (X86)\WINDOWS KITS\10\INCLUDE\10.0.18362.0\UCRT\CORECRT_WTIME.H
C:\PROGRAM FILES (X86)\WINDOWS KITS\10\INCLUDE\10.0.18362.0\UCRT\SYS\STAT.H
C:\PROGRAM FILES (X86)\WINDOWS KITS\10\INCLUDE\10.0.18362.0\UCRT\SYS\TYPES.H
D:\PROGRAMS\IDES\VISUALSTUDIO\VC\TOOLS\MSVC\14.23.28105\INCLUDE\XSTDDEF
D:\PROGRAMS\IDES\VISUALSTUDIO\VC\TOOLS\MSVC\14.23.28105\INCLUDE\CSTDDEF
D:\PROGRAMS\IDES\VISUALSTUDIO\VC\TOOLS\MSVC\14.23.28105\INCLUDE\XTR1COMMON
D:\PROGRAMS\IDES\VISUALSTUDIO\VC\TOOLS\MSVC\14.23.28105\INCLUDE\INITIALIZER_LIST
D:\PROGRAMS\IDES\VISUALSTUDIO\VC\TOOLS\MSVC\14.23.28105\INCLUDE\NEW
D:\PROGRAMS\IDES\VISUALSTUDIO\VC\TOOLS\MSVC\14.23.28105\INCLUDE\EXCEPTION
D:\PROGRAMS\IDES\VISUALSTUDIO\VC\TOOLS\MSVC\14.23.28105\INCLUDE\TYPE_TRAITS
C:\PROGRAM FILES (X86)\WINDOWS KITS\10\INCLUDE\10.0.18362.0\UCRT\MALLOC.H
D:\PROGRAMS\IDES\VISUALSTUDIO\VC\TOOLS\MSVC\14.23.28105\INCLUDE\VCRUNTIME_EXCEPTION.H
D:\PROGRAMS\IDES\VISUALSTUDIO\VC\TOOLS\MSVC\14.23.28105\INCLUDE\EH.H
C:\PROGRAM FILES (X86)\WINDOWS KITS\10\INCLUDE\10.0.18362.0\UCRT\CORECRT_TERMINATE.H
D:\PROGRAMS\IDES\VISUALSTUDIO\VC\TOOLS\MSVC\14.23.28105\INCLUDE\XATOMIC.H
D:\PROGRAMS\IDES\VISUALSTUDIO\VC\TOOLS\MSVC\14.23.28105\INCLUDE\INTRIN0.H
D:\PROGRAMS\IDES\VISUALSTUDIO\VC\TOOLS\MSVC\14.23.28105\INCLUDE\XUTILITY
D:\PROGRAMS\IDES\VISUALSTUDIO\VC\TOOLS\MSVC\14.23.28105\INCLUDE\CSTRING
C:\PROGRAM FILES (X86)\WINDOWS KITS\10\INCLUDE\10.0.18362.0\UCRT\STRING.H
C:\PROGRAM FILES (X86)\WINDOWS KITS\10\INCLUDE\10.0.18362.0\UCRT\CORECRT_MEMORY.H
D:\PROGRAMS\IDES\VISUALSTUDIO\VC\TOOLS\MSVC\14.23.28105\INCLUDE\UTILITY
C:\USERS\DASHA\DESKTOP\TEST_TASK_SOLOVIOVA\SOURCE\MOVINGOBJECTSDATA.H
C:\USERS\DASHA\DESKTOP\TEST_TASK_SOLOVIOVA\SOURCE\VECTOR2D.H
D:\PROGRAMS\IDES\VISUALSTUDIO\VC\TOOLS\MSVC\14.23.28105\INCLUDE\SET
D:\PROGRAMS\IDES\VISUALSTUDIO\VC\TOOLS\MSVC\14.23.28105\INCLUDE\XTREE
C:\USERS\DASHA\DESKTOP\TEST_TASK_SOLOVIOVA\SOURCE\SPRITESDATA.H
C:\USERS\DASHA\DESKTOP\TEST_TASK_SOLOVIOVA\SOURCE\SCREENSPACE.H
C:\USERS\DASHA\DESKTOP\TEST_TASK_SOLOVIOVA\SOURCE\GRID.H
C:\USERS\DASHA\DESKTOP\TEST_TASK_SOLOVIOVA\SOURCE\PLAYER.H
C:\USERS\DASHA\DESKTOP\TEST_TASK_SOLOVIOVA\SOURCE\COLLISIONHANDLER.H
D:\PROGRAMS\IDES\VISUALSTUDIO\VC\TOOLS\MSVC\14.23.28105\INCLUDE\ALGORITHM
^C:\USERS\DASHA\DESKTOP\TEST_TASK_SOLOVIOVA\SOURCE\MOVINGOBJECTSDATA.CPP
C:\USERS\DASHA\DESKTOP\TEST_TASK_SOLOVIOVA\SOURCE\FRAMEWORK.H
D:\PROGRAMS\IDES\VISUALSTUDIO\VC\TOOLS\MSVC\14.23.28105\INCLUDE\VECTOR
D:\PROGRAMS\IDES\VISUALSTUDIO\VC\TOOLS\MSVC\14.23.28105\INCLUDE\YVALS_CORE.H
D:\PROGRAMS\IDES\VISUALSTUDIO\VC\TOOLS\MSVC\14.23.28105\INCLUDE\CRTDEFS.H
D:\PROGRAMS\IDES\VISUALSTUDIO\VC\TOOLS\MSVC\14.23.28105\INCLUDE\VCRUNTIME.H
D:\PROGRAMS\IDES\VISUALSTUDIO\VC\TOOLS\MSVC\14.23.28105\INCLUDE\SAL.H
D:\PROGRAMS\IDES\VISUALSTUDIO\VC\TOOLS\MSVC\14.23.28105\INCLUDE\CONCURRENCYSAL.H
D:\PROGRAMS\IDES\VISUALSTUDIO\VC\TOOLS\MSVC\14.23.28105\INCLUDE\VADEFS.H
C:\PROGRAM FILES (X86)\WINDOWS KITS\10\INCLUDE\10.0.18362.0\UCRT\CORECRT.H
D:\PROGRAMS\IDES\VISUALSTUDIO\VC\TOOLS\MSVC\14.23.28105\INCLUDE\XKEYCHECK.H
D:\PROGRAMS\IDES\VISUALSTUDIO\VC\TOOLS\MSVC\14.23.28105\INCLUDE\XMEMORY
D:\PROGRAMS\IDES\VISUALSTUDIO\VC\TOOLS\MSVC\14.23.28105\INCLUDE\CSTDINT
D:\PROGRAMS\IDES\VISUALSTUDIO\VC\TOOLS\MSVC\14.23.28105\INCLUDE\YVALS.H
C:\PROGRAM FILES (X86)\WINDOWS KITS\10\INCLUDE\10.0.18362.0\UCRT\CRTDBG.H
D:\PROGRAMS\IDES\VISUALSTUDIO\VC\TOOLS\MSVC\14.23.28105\INCLUDE\VCRUNTIME_NEW_DEBUG.H
D:\PROGRAMS\IDES\VISUALSTUDIO\VC\TOOLS\MSVC\14.23.28105\INCLUDE\VCRUNTIME_NEW.H
D:\PROGRAMS\IDES\VISUALSTUDIO\VC\TOOLS\MSVC\14.23.28105\INCLUDE\USE_ANSI.H
D:\PROGRAMS\IDES\VISUALSTUDIO\VC\TOOLS\MSVC\14.23.28105\INCLUDE\STDINT.H
D:\PROGRAMS\IDES\VISUALSTUDIO\VC\TOOLS\MSVC\14.23.28105\INCLUDE\CSTDLIB
C:\PROGRAM FILES (X86)\WINDOWS KITS\10\INCLUDE\10.0.18362.0\UCRT\MATH.H
C:\PROGRAM FILES (X86)\WINDOWS KITS\10\INCLUDE\10.0.18362.0\UCRT\CORECRT_MATH.H
C:\PROGRAM FILES (X86)\WINDOWS KITS\10\INCLUDE\10.0.18362.0\UCRT\STDLIB.H
C:\PROGRAM FILES (X86)\WINDOWS KITS\10\INCLUDE\10.0.18362.0\UCRT\CORECRT_MALLOC.H
C:\PROGRAM FILES (X86)\WINDOWS KITS\10\INCLUDE\10.0.18362.0\UCRT\CORECRT_SEARCH.H
C:\PROGRAM FILES (X86)\WINDOWS KITS\10\INCLUDE\10.0.18362.0\UCRT\STDDEF.H
C:\PROGRAM FILES (X86)\WINDOWS KITS\10\INCLUDE\10.0.18362.0\UCRT\CORECRT_WSTDLIB.H
D:\PROGRAMS\IDES\VISUALSTUDIO\VC\TOOLS\MSVC\14.23.28105\INCLUDE\LIMITS.H
D:\PROGRAMS\IDES\VISUALSTUDIO\VC\TOOLS\MSVC\14.23.28105\INCLUDE\LIMITS
D:\PROGRAMS\IDES\VISUALSTUDIO\VC\TOOLS\MSVC\14.23.28105\INCLUDE\CFLOAT
C:\PROGRAM FILES (X86)\WINDOWS KITS\10\INCLUDE\10.0.18362.0\UCRT\FLOAT.H
D:\PROGRAMS\IDES\VISUALSTUDIO\VC\TOOLS\MSVC\14.23.28105\INCLUDE\CLIMITS
D:\PROGRAMS\IDES\VISUALSTUDIO\VC\TOOLS\MSVC\14.23.28105\INCLUDE\CWCHAR
D:\PROGRAMS\IDES\VISUALSTUDIO\VC\TOOLS\MSVC\14.23.28105\INCLUDE\CSTDIO
C:\PROGRAM FILES (X86)\WINDOWS KITS\10\INCLUDE\10.0.18362.0\UCRT\STDIO.H
C:\PROGRAM FILES (X86)\WINDOWS KITS\10\INCLUDE\10.0.18362.0\UCRT\CORECRT_WSTDIO.H
C:\PROGRAM FILES (X86)\WINDOWS KITS\10\INCLUDE\10.0.18362.0\UCRT\CORECRT_STDIO_CONFIG.H
C:\PROGRAM FILES (X86)\WINDOWS KITS\10\INCLUDE\10.0.18362.0\UCRT\WCHAR.H
C:\PROGRAM FILES (X86)\WINDOWS KITS\10\INCLUDE\10.0.18362.0\UCRT\CORECRT_MEMCPY_S.H
C:\PROGRAM FILES (X86)\WINDOWS KITS\10\INCLUDE\10.0.18362.0\UCRT\ERRNO.H
D:\PROGRAMS\IDES\VISUALSTUDIO\VC\TOOLS\MSVC\14.23.28105\INCLUDE\VCRUNTIME_STRING.H
C:\PROGRAM FILES (X86)\WINDOWS KITS\10\INCLUDE\10.0.18362.0\UCRT\CORECRT_WCONIO.H
C:\PROGRAM FILES (X86)\WINDOWS KITS\10\INCLUDE\10.0.18362.0\UCRT\CORECRT_WCTYPE.H
C:\PROGRAM FILES (X86)\WINDOWS KITS\10\INCLUDE\10.0.18362.0\UCRT\CORECRT_WDIRECT.H
C:\PROGRAM FILES (X86)\WINDOWS KITS\10\INCLUDE\10.0.18362.0\UCRT\CORECRT_WIO.H
C:\PROGRAM FILES (X86)\WINDOWS KITS\10\INCLUDE\10.0.18362.0\UCRT\CORECRT_SHARE.H
C:\PROGRAM FILES (X86)\WINDOWS KITS\10\INCLUDE\10.0.18362.0\UCRT\CORECRT_WPROCESS.H
C:\PROGRAM FILES (X86)\WINDOWS KITS\10\INCLUDE\10.0.18362.0\UCRT\CORECRT_WSTRING.H
C:\PROGRAM FILES (X86)\WINDOWS KITS\10\INCLUDE\10.0.18362.0\UCRT\CORECRT_WTIME.H
C:\PROGRAM FILES (X86)\WINDOWS KITS\10\INCLUDE\10.0.18362.0\UCRT\SYS\STAT.H
C:\PROGRAM FILES (X86)\WINDOWS KITS\10\INCLUDE\10.0.18362.0\UCRT\SYS\TYPES.H
D:\PROGRAMS\IDES\VISUALSTUDIO\VC\TOOLS\MSVC\14.23.28105\INCLUDE\XSTDDEF
D:\PROGRAMS\IDES\VISUALSTUDIO\VC\TOOLS\MSVC\14.23.28105\INCLUDE\CSTDDEF
D:\PROGRAMS\IDES\VISUALSTUDIO\VC\TOOLS\MSVC\14.23.28105\INCLUDE\XTR1COMMON
D:\PROGRAMS\IDES\VISUALSTUDIO\VC\TOOLS\MSVC\14.23.28105\INCLUDE\INITIALIZER_LIST
D:\PROGRAMS\IDES\VISUALSTUDIO\VC\TOOLS\MSVC\14.23.28105\INCLUDE\NEW
D:\PROGRAMS\IDES\VISUALSTUDIO\VC\TOOLS\MSVC\14.23.28105\INCLUDE\EXCEPTION
D:\PROGRAMS\IDES\VISUALSTUDIO\VC\TOOLS\MSVC\14.23.28105\INCLUDE\TYPE_TRAITS
C:\PROGRAM FILES (X86)\WINDOWS KITS\10\INCLUDE\10.0.18362.0\UCRT\MALLOC.H
D:\PROGRAMS\IDES\VISUALSTUDIO\VC\TOOLS\MSVC\14.23.28105\INCLUDE\VCRUNTIME_EXCEPTION.H
D:\PROGRAMS\IDES\VISUALSTUDIO\VC\TOOLS\MSVC\14.23.28105\INCLUDE\EH.H
C:\PROGRAM FILES (X86)\WINDOWS KITS\10\INCLUDE\10.0.18362.0\UCRT\CORECRT_TERMINATE.H
D:\PROGRAMS\IDES\VISUALSTUDIO\VC\TOOLS\MSVC\14.23.28105\INCLUDE\XATOMIC.H
D:\PROGRAMS\IDES\VISUALSTUDIO\VC\TOOLS\MSVC\14.23.28105\INCLUDE\INTRIN0.H
D:\PROGRAMS\IDES\VISUALSTUDIO\VC\TOOLS\MSVC\14.23.28105\INCLUDE\XUTILITY
D:\PROGRAMS\IDES\VISUALSTUDIO\VC\TOOLS\MSVC\14.23.28105\INCLUDE\CSTRING
C:\PROGRAM FILES (X86)\WINDOWS KITS\10\INCLUDE\10.0.18362.0\UCRT\STRING.H
C:\PROGRAM FILES (X86)\WINDOWS KITS\10\INCLUDE\10.0.18362.0\UCRT\CORECRT_MEMORY.H
D:\PROGRAMS\IDES\VISUALSTUDIO\VC\TOOLS\MSVC\14.23.28105\INCLUDE\UTILITY
C:\USERS\DASHA\DESKTOP\TEST_TASK_SOLOVIOVA\SOURCE\MOVINGOBJECTSDATA.H
C:\USERS\DASHA\DESKTOP\TEST_TASK_SOLOVIOVA\SOURCE\VECTOR2D.H
D:\PROGRAMS\IDES\VISUALSTUDIO\VC\TOOLS\MSVC\14.23.28105\INCLUDE\SET
D:\PROGRAMS\IDES\VISUALSTUDIO\VC\TOOLS\MSVC\14.23.28105\INCLUDE\XTREE
C:\USERS\DASHA\DESKTOP\TEST_TASK_SOLOVIOVA\SOURCE\SPRITESDATA.H
C:\USERS\DASHA\DESKTOP\TEST_TASK_SOLOVIOVA\SOURCE\SCREENSPACE.H
D:\PROGRAMS\IDES\VISUALSTUDIO\VC\TOOLS\MSVC\14.23.28105\INCLUDE\ALGORITHM
^C:\USERS\DASHA\DESKTOP\TEST_TASK_SOLOVIOVA\SOURCE\PLAYER.CPP
C:\USERS\DASHA\DESKTOP\TEST_TASK_SOLOVIOVA\SOURCE\PLAYER.H
C:\USERS\DASHA\DESKTOP\TEST_TASK_SOLOVIOVA\SOURCE\VECTOR2D.H
C:\USERS\DASHA\DESKTOP\TEST_TASK_SOLOVIOVA\SOURCE\MOVINGOBJECTSDATA.H
D:\PROGRAMS\IDES\VISUALSTUDIO\VC\TOOLS\MSVC\14.23.28105\INCLUDE\VECTOR
D:\PROGRAMS\IDES\VISUALSTUDIO\VC\TOOLS\MSVC\14.23.28105\INCLUDE\YVALS_CORE.H
D:\PROGRAMS\IDES\VISUALSTUDIO\VC\TOOLS\MSVC\14.23.28105\INCLUDE\CRTDEFS.H
D:\PROGRAMS\IDES\VISUALSTUDIO\VC\TOOLS\MSVC\14.23.28105\INCLUDE\VCRUNTIME.H
D:\PROGRAMS\IDES\VISUALSTUDIO\VC\TOOLS\MSVC\14.23.28105\INCLUDE\SAL.H
D:\PROGRAMS\IDES\VISUALSTUDIO\VC\TOOLS\MSVC\14.23.28105\INCLUDE\CONCURRENCYSAL.H
D:\PROGRAMS\IDES\VISUALSTUDIO\VC\TOOLS\MSVC\14.23.28105\INCLUDE\VADEFS.H
C:\PROGRAM FILES (X86)\WINDOWS KITS\10\INCLUDE\10.0.18362.0\UCRT\CORECRT.H
D:\PROGRAMS\IDES\VISUALSTUDIO\VC\TOOLS\MSVC\14.23.28105\INCLUDE\XKEYCHECK.H
D:\PROGRAMS\IDES\VISUALSTUDIO\VC\TOOLS\MSVC\14.23.28105\INCLUDE\XMEMORY
D:\PROGRAMS\IDES\VISUALSTUDIO\VC\TOOLS\MSVC\14.23.28105\INCLUDE\CSTDINT
D:\PROGRAMS\IDES\VISUALSTUDIO\VC\TOOLS\MSVC\14.23.28105\INCLUDE\YVALS.H
C:\PROGRAM FILES (X86)\WINDOWS KITS\10\INCLUDE\10.0.18362.0\UCRT\CRTDBG.H
D:\PROGRAMS\IDES\VISUALSTUDIO\VC\TOOLS\MSVC\14.23.28105\INCLUDE\VCRUNTIME_NEW_DEBUG.H
D:\PROGRAMS\IDES\VISUALSTUDIO\VC\TOOLS\MSVC\14.23.28105\INCLUDE\VCRUNTIME_NEW.H
D:\PROGRAMS\IDES\VISUALSTUDIO\VC\TOOLS\MSVC\14.23.28105\INCLUDE\USE_ANSI.H
D:\PROGRAMS\IDES\VISUALSTUDIO\VC\TOOLS\MSVC\14.23.28105\INCLUDE\STDINT.H
D:\PROGRAMS\IDES\VISUALSTUDIO\VC\TOOLS\MSVC\14.23.28105\INCLUDE\CSTDLIB
C:\PROGRAM FILES (X86)\WINDOWS KITS\10\INCLUDE\10.0.18362.0\UCRT\MATH.H
C:\PROGRAM FILES (X86)\WINDOWS KITS\10\INCLUDE\10.0.18362.0\UCRT\CORECRT_MATH.H
C:\PROGRAM FILES (X86)\WINDOWS KITS\10\INCLUDE\10.0.18362.0\UCRT\STDLIB.H
C:\PROGRAM FILES (X86)\WINDOWS KITS\10\INCLUDE\10.0.18362.0\UCRT\CORECRT_MALLOC.H
C:\PROGRAM FILES (X86)\WINDOWS KITS\10\INCLUDE\10.0.18362.0\UCRT\CORECRT_SEARCH.H
C:\PROGRAM FILES (X86)\WINDOWS KITS\10\INCLUDE\10.0.18362.0\UCRT\STDDEF.H
C:\PROGRAM FILES (X86)\WINDOWS KITS\10\INCLUDE\10.0.18362.0\UCRT\CORECRT_WSTDLIB.H
D:\PROGRAMS\IDES\VISUALSTUDIO\VC\TOOLS\MSVC\14.23.28105\INCLUDE\LIMITS.H
D:\PROGRAMS\IDES\VISUALSTUDIO\VC\TOOLS\MSVC\14.23.28105\INCLUDE\LIMITS
D:\PROGRAMS\IDES\VISUALSTUDIO\VC\TOOLS\MSVC\14.23.28105\INCLUDE\CFLOAT
C:\PROGRAM FILES (X86)\WINDOWS KITS\10\INCLUDE\10.0.18362.0\UCRT\FLOAT.H
D:\PROGRAMS\IDES\VISUALSTUDIO\VC\TOOLS\MSVC\14.23.28105\INCLUDE\CLIMITS
D:\PROGRAMS\IDES\VISUALSTUDIO\VC\TOOLS\MSVC\14.23.28105\INCLUDE\CWCHAR
D:\PROGRAMS\IDES\VISUALSTUDIO\VC\TOOLS\MSVC\14.23.28105\INCLUDE\CSTDIO
C:\PROGRAM FILES (X86)\WINDOWS KITS\10\INCLUDE\10.0.18362.0\UCRT\STDIO.H
C:\PROGRAM FILES (X86)\WINDOWS KITS\10\INCLUDE\10.0.18362.0\UCRT\CORECRT_WSTDIO.H
C:\PROGRAM FILES (X86)\WINDOWS KITS\10\INCLUDE\10.0.18362.0\UCRT\CORECRT_STDIO_CONFIG.H
C:\PROGRAM FILES (X86)\WINDOWS KITS\10\INCLUDE\10.0.18362.0\UCRT\WCHAR.H
C:\PROGRAM FILES (X86)\WINDOWS KITS\10\INCLUDE\10.0.18362.0\UCRT\CORECRT_MEMCPY_S.H
C:\PROGRAM FILES (X86)\WINDOWS KITS\10\INCLUDE\10.0.18362.0\UCRT\ERRNO.H
D:\PROGRAMS\IDES\VISUALSTUDIO\VC\TOOLS\MSVC\14.23.28105\INCLUDE\VCRUNTIME_STRING.H
C:\PROGRAM FILES (X86)\WINDOWS KITS\10\INCLUDE\10.0.18362.0\UCRT\CORECRT_WCONIO.H
C:\PROGRAM FILES (X86)\WINDOWS KITS\10\INCLUDE\10.0.18362.0\UCRT\CORECRT_WCTYPE.H
C:\PROGRAM FILES (X86)\WINDOWS KITS\10\INCLUDE\10.0.18362.0\UCRT\CORECRT_WDIRECT.H
C:\PROGRAM FILES (X86)\WINDOWS KITS\10\INCLUDE\10.0.18362.0\UCRT\CORECRT_WIO.H
C:\PROGRAM FILES (X86)\WINDOWS KITS\10\INCLUDE\10.0.18362.0\UCRT\CORECRT_SHARE.H
C:\PROGRAM FILES (X86)\WINDOWS KITS\10\INCLUDE\10.0.18362.0\UCRT\CORECRT_WPROCESS.H
C:\PROGRAM FILES (X86)\WINDOWS KITS\10\INCLUDE\10.0.18362.0\UCRT\CORECRT_WSTRING.H
C:\PROGRAM FILES (X86)\WINDOWS KITS\10\INCLUDE\10.0.18362.0\UCRT\CORECRT_WTIME.H
C:\PROGRAM FILES (X86)\WINDOWS KITS\10\INCLUDE\10.0.18362.0\UCRT\SYS\STAT.H
C:\PROGRAM FILES (X86)\WINDOWS KITS\10\INCLUDE\10.0.18362.0\UCRT\SYS\TYPES.H
D:\PROGRAMS\IDES\VISUALSTUDIO\VC\TOOLS\MSVC\14.23.28105\INCLUDE\XSTDDEF
D:\PROGRAMS\IDES\VISUALSTUDIO\VC\TOOLS\MSVC\14.23.28105\INCLUDE\CSTDDEF
D:\PROGRAMS\IDES\VISUALSTUDIO\VC\TOOLS\MSVC\14.23.28105\INCLUDE\XTR1COMMON
D:\PROGRAMS\IDES\VISUALSTUDIO\VC\TOOLS\MSVC\14.23.28105\INCLUDE\INITIALIZER_LIST
D:\PROGRAMS\IDES\VISUALSTUDIO\VC\TOOLS\MSVC\14.23.28105\INCLUDE\NEW
D:\PROGRAMS\IDES\VISUALSTUDIO\VC\TOOLS\MSVC\14.23.28105\INCLUDE\EXCEPTION
D:\PROGRAMS\IDES\VISUALSTUDIO\VC\TOOLS\MSVC\14.23.28105\INCLUDE\TYPE_TRAITS
C:\PROGRAM FILES (X86)\WINDOWS KITS\10\INCLUDE\10.0.18362.0\UCRT\MALLOC.H
D:\PROGRAMS\IDES\VISUALSTUDIO\VC\TOOLS\MSVC\14.23.28105\INCLUDE\VCRUNTIME_EXCEPTION.H
D:\PROGRAMS\IDES\VISUALSTUDIO\VC\TOOLS\MSVC\14.23.28105\INCLUDE\EH.H
C:\PROGRAM FILES (X86)\WINDOWS KITS\10\INCLUDE\10.0.18362.0\UCRT\CORECRT_TERMINATE.H
D:\PROGRAMS\IDES\VISUALSTUDIO\VC\TOOLS\MSVC\14.23.28105\INCLUDE\XATOMIC.H
D:\PROGRAMS\IDES\VISUALSTUDIO\VC\TOOLS\MSVC\14.23.28105\INCLUDE\INTRIN0.H
D:\PROGRAMS\IDES\VISUALSTUDIO\VC\TOOLS\MSVC\14.23.28105\INCLUDE\XUTILITY
D:\PROGRAMS\IDES\VISUALSTUDIO\VC\TOOLS\MSVC\14.23.28105\INCLUDE\CSTRING
C:\PROGRAM FILES (X86)\WINDOWS KITS\10\INCLUDE\10.0.18362.0\UCRT\STRING.H
C:\PROGRAM FILES (X86)\WINDOWS KITS\10\INCLUDE\10.0.18362.0\UCRT\CORECRT_MEMORY.H
D:\PROGRAMS\IDES\VISUALSTUDIO\VC\TOOLS\MSVC\14.23.28105\INCLUDE\UTILITY
D:\PROGRAMS\IDES\VISUALSTUDIO\VC\TOOLS\MSVC\14.23.28105\INCLUDE\SET
D:\PROGRAMS\IDES\VISUALSTUDIO\VC\TOOLS\MSVC\14.23.28105\INCLUDE\XTREE
C:\USERS\DASHA\DESKTOP\TEST_TASK_SOLOVIOVA\SOURCE\SPRITESDATA.H
C:\USERS\DASHA\DESKTOP\TEST_TASK_SOLOVIOVA\SOURCE\FRAMEWORK.H
C:\USERS\DASHA\DESKTOP\TEST_TASK_SOLOVIOVA\SOURCE\SCREENSPACE.H
D:\PROGRAMS\IDES\VISUALSTUDIO\VC\TOOLS\MSVC\14.23.28105\INCLUDE\CMATH
D:\PROGRAMS\IDES\VISUALSTUDIO\VC\TOOLS\MSVC\14.23.28105\INCLUDE\XTGMATH.H
^C:\USERS\DASHA\DESKTOP\TEST_TASK_SOLOVIOVA\SOURCE\SCREENSPACE.CPP
C:\USERS\DASHA\DESKTOP\TEST_TASK_SOLOVIOVA\SOURCE\SCREENSPACE.H
C:\USERS\DASHA\DESKTOP\TEST_TASK_SOLOVIOVA\SOURCE\VECTOR2D.H
^C:\USERS\DASHA\DESKTOP\TEST_TASK_SOLOVIOVA\SOURCE\SPRITESDATA.CPP
C:\USERS\DASHA\DESKTOP\TEST_TASK_SOLOVIOVA\SOURCE\SPRITESDATA.H
C:\USERS\DASHA\DESKTOP\TEST_TASK_SOLOVIOVA\SOURCE\VECTOR2D.H
D:\PROGRAMS\IDES\VISUALSTUDIO\VC\TOOLS\MSVC\14.23.28105\INCLUDE\VECTOR
D:\PROGRAMS\IDES\VISUALSTUDIO\VC\TOOLS\MSVC\14.23.28105\INCLUDE\YVALS_CORE.H
D:\PROGRAMS\IDES\VISUALSTUDIO\VC\TOOLS\MSVC\14.23.28105\INCLUDE\CRTDEFS.H
D:\PROGRAMS\IDES\VISUALSTUDIO\VC\TOOLS\MSVC\14.23.28105\INCLUDE\VCRUNTIME.H
D:\PROGRAMS\IDES\VISUALSTUDIO\VC\TOOLS\MSVC\14.23.28105\INCLUDE\SAL.H
D:\PROGRAMS\IDES\VISUALSTUDIO\VC\TOOLS\MSVC\14.23.28105\INCLUDE\CONCURRENCYSAL.H
D:\PROGRAMS\IDES\VISUALSTUDIO\VC\TOOLS\MSVC\14.23.28105\INCLUDE\VADEFS.H
C:\PROGRAM FILES (X86)\WINDOWS KITS\10\INCLUDE\10.0.18362.0\UCRT\CORECRT.H
D:\PROGRAMS\IDES\VISUALSTUDIO\VC\TOOLS\MSVC\14.23.28105\INCLUDE\XKEYCHECK.H
D:\PROGRAMS\IDES\VISUALSTUDIO\VC\TOOLS\MSVC\14.23.28105\INCLUDE\XMEMORY
D:\PROGRAMS\IDES\VISUALSTUDIO\VC\TOOLS\MSVC\14.23.28105\INCLUDE\CSTDINT
D:\PROGRAMS\IDES\VISUALSTUDIO\VC\TOOLS\MSVC\14.23.28105\INCLUDE\YVALS.H
C:\PROGRAM FILES (X86)\WINDOWS KITS\10\INCLUDE\10.0.18362.0\UCRT\CRTDBG.H
D:\PROGRAMS\IDES\VISUALSTUDIO\VC\TOOLS\MSVC\14.23.28105\INCLUDE\VCRUNTIME_NEW_DEBUG.H
D:\PROGRAMS\IDES\VISUALSTUDIO\VC\TOOLS\MSVC\14.23.28105\INCLUDE\VCRUNTIME_NEW.H
D:\PROGRAMS\IDES\VISUALSTUDIO\VC\TOOLS\MSVC\14.23.28105\INCLUDE\USE_ANSI.H
D:\PROGRAMS\IDES\VISUALSTUDIO\VC\TOOLS\MSVC\14.23.28105\INCLUDE\STDINT.H
D:\PROGRAMS\IDES\VISUALSTUDIO\VC\TOOLS\MSVC\14.23.28105\INCLUDE\CSTDLIB
C:\PROGRAM FILES (X86)\WINDOWS KITS\10\INCLUDE\10.0.18362.0\UCRT\MATH.H
C:\PROGRAM FILES (X86)\WINDOWS KITS\10\INCLUDE\10.0.18362.0\UCRT\CORECRT_MATH.H
C:\PROGRAM FILES (X86)\WINDOWS KITS\10\INCLUDE\10.0.18362.0\UCRT\STDLIB.H
C:\PROGRAM FILES (X86)\WINDOWS KITS\10\INCLUDE\10.0.18362.0\UCRT\CORECRT_MALLOC.H
C:\PROGRAM FILES (X86)\WINDOWS KITS\10\INCLUDE\10.0.18362.0\UCRT\CORECRT_SEARCH.H
C:\PROGRAM FILES (X86)\WINDOWS KITS\10\INCLUDE\10.0.18362.0\UCRT\STDDEF.H
C:\PROGRAM FILES (X86)\WINDOWS KITS\10\INCLUDE\10.0.18362.0\UCRT\CORECRT_WSTDLIB.H
D:\PROGRAMS\IDES\VISUALSTUDIO\VC\TOOLS\MSVC\14.23.28105\INCLUDE\LIMITS.H
D:\PROGRAMS\IDES\VISUALSTUDIO\VC\TOOLS\MSVC\14.23.28105\INCLUDE\LIMITS
D:\PROGRAMS\IDES\VISUALSTUDIO\VC\TOOLS\MSVC\14.23.28105\INCLUDE\CFLOAT
C:\PROGRAM FILES (X86)\WINDOWS KITS\10\INCLUDE\10.0.18362.0\UCRT\FLOAT.H
D:\PROGRAMS\IDES\VISUALSTUDIO\VC\TOOLS\MSVC\14.23.28105\INCLUDE\CLIMITS
D:\PROGRAMS\IDES\VISUALSTUDIO\VC\TOOLS\MSVC\14.23.28105\INCLUDE\CWCHAR
D:\PROGRAMS\IDES\VISUALSTUDIO\VC\TOOLS\MSVC\14.23.28105\INCLUDE\CSTDIO
C:\PROGRAM FILES (X86)\WINDOWS KITS\10\INCLUDE\10.0.18362.0\UCRT\STDIO.H
C:\PROGRAM FILES (X86)\WINDOWS KITS\10\INCLUDE\10.0.18362.0\UCRT\CORECRT_WSTDIO.H
C:\PROGRAM FILES (X86)\WINDOWS KITS\10\INCLUDE\10.0.18362.0\UCRT\CORECRT_STDIO_CONFIG.H
C:\PROGRAM FILES (X86)\WINDOWS KITS\10\INCLUDE\10.0.18362.0\UCRT\WCHAR.H
C:\PROGRAM FILES (X86)\WINDOWS KITS\10\INCLUDE\10.0.18362.0\UCRT\CORECRT_MEMCPY_S.H
C:\PROGRAM FILES (X86)\WINDOWS KITS\10\INCLUDE\10.0.18362.0\UCRT\ERRNO.H
D:\PROGRAMS\IDES\VISUALSTUDIO\VC\TOOLS\MSVC\14.23.28105\INCLUDE\VCRUNTIME_STRING.H
C:\PROGRAM FILES (X86)\WINDOWS KITS\10\INCLUDE\10.0.18362.0\UCRT\CORECRT_WCONIO.H
C:\PROGRAM FILES (X86)\WINDOWS KITS\10\INCLUDE\10.0.18362.0\UCRT\CORECRT_WCTYPE.H
C:\PROGRAM FILES (X86)\WINDOWS KITS\10\INCLUDE\10.0.18362.0\UCRT\CORECRT_WDIRECT.H
C:\PROGRAM FILES (X86)\WINDOWS KITS\10\INCLUDE\10.0.18362.0\UCRT\CORECRT_WIO.H
C:\PROGRAM FILES (X86)\WINDOWS KITS\10\INCLUDE\10.0.18362.0\UCRT\CORECRT_SHARE.H
C:\PROGRAM FILES (X86)\WINDOWS KITS\10\INCLUDE\10.0.18362.0\UCRT\CORECRT_WPROCESS.H
C:\PROGRAM FILES (X86)\WINDOWS KITS\10\INCLUDE\10.0.18362.0\UCRT\CORECRT_WSTRING.H
C:\PROGRAM FILES (X86)\WINDOWS KITS\10\INCLUDE\10.0.18362.0\UCRT\CORECRT_WTIME.H
C:\PROGRAM FILES (X86)\WINDOWS KITS\10\INCLUDE\10.0.18362.0\UCRT\SYS\STAT.H
C:\PROGRAM FILES (X86)\WINDOWS KITS\10\INCLUDE\10.0.18362.0\UCRT\SYS\TYPES.H
D:\PROGRAMS\IDES\VISUALSTUDIO\VC\TOOLS\MSVC\14.23.28105\INCLUDE\XSTDDEF
D:\PROGRAMS\IDES\VISUALSTUDIO\VC\TOOLS\MSVC\14.23.28105\INCLUDE\CSTDDEF
D:\PROGRAMS\IDES\VISUALSTUDIO\VC\TOOLS\MSVC\14.23.28105\INCLUDE\XTR1COMMON
D:\PROGRAMS\IDES\VISUALSTUDIO\VC\TOOLS\MSVC\14.23.28105\INCLUDE\INITIALIZER_LIST
D:\PROGRAMS\IDES\VISUALSTUDIO\VC\TOOLS\MSVC\14.23.28105\INCLUDE\NEW
D:\PROGRAMS\IDES\VISUALSTUDIO\VC\TOOLS\MSVC\14.23.28105\INCLUDE\EXCEPTION
D:\PROGRAMS\IDES\VISUALSTUDIO\VC\TOOLS\MSVC\14.23.28105\INCLUDE\TYPE_TRAITS
C:\PROGRAM FILES (X86)\WINDOWS KITS\10\INCLUDE\10.0.18362.0\UCRT\MALLOC.H
D:\PROGRAMS\IDES\VISUALSTUDIO\VC\TOOLS\MSVC\14.23.28105\INCLUDE\VCRUNTIME_EXCEPTION.H
D:\PROGRAMS\IDES\VISUALSTUDIO\VC\TOOLS\MSVC\14.23.28105\INCLUDE\EH.H
C:\PROGRAM FILES (X86)\WINDOWS KITS\10\INCLUDE\10.0.18362.0\UCRT\CORECRT_TERMINATE.H
D:\PROGRAMS\IDES\VISUALSTUDIO\VC\TOOLS\MSVC\14.23.28105\INCLUDE\XATOMIC.H
D:\PROGRAMS\IDES\VISUALSTUDIO\VC\TOOLS\MSVC\14.23.28105\INCLUDE\INTRIN0.H
D:\PROGRAMS\IDES\VISUALSTUDIO\VC\TOOLS\MSVC\14.23.28105\INCLUDE\XUTILITY
D:\PROGRAMS\IDES\VISUALSTUDIO\VC\TOOLS\MSVC\14.23.28105\INCLUDE\CSTRING
C:\PROGRAM FILES (X86)\WINDOWS KITS\10\INCLUDE\10.0.18362.0\UCRT\STRING.H
C:\PROGRAM FILES (X86)\WINDOWS KITS\10\INCLUDE\10.0.18362.0\UCRT\CORECRT_MEMORY.H
D:\PROGRAMS\IDES\VISUALSTUDIO\VC\TOOLS\MSVC\14.23.28105\INCLUDE\UTILITY
C:\USERS\DASHA\DESKTOP\TEST_TASK_SOLOVIOVA\SOURCE\FRAMEWORK.H
^C:\USERS\DASHA\DESKTOP\TEST_TASK_SOLOVIOVA\SOURCE\VECTOR2D.CPP
C:\USERS\DASHA\DESKTOP\TEST_TASK_SOLOVIOVA\SOURCE\VECTOR2D.H
D:\PROGRAMS\IDES\VISUALSTUDIO\VC\TOOLS\MSVC\14.23.28105\INCLUDE\CMATH
D:\PROGRAMS\IDES\VISUALSTUDIO\VC\TOOLS\MSVC\14.23.28105\INCLUDE\YVALS.H
D:\PROGRAMS\IDES\VISUALSTUDIO\VC\TOOLS\MSVC\14.23.28105\INCLUDE\YVALS_CORE.H
D:\PROGRAMS\IDES\VISUALSTUDIO\VC\TOOLS\MSVC\14.23.28105\INCLUDE\CRTDEFS.H
D:\PROGRAMS\IDES\VISUALSTUDIO\VC\TOOLS\MSVC\14.23.28105\INCLUDE\VCRUNTIME.H
D:\PROGRAMS\IDES\VISUALSTUDIO\VC\TOOLS\MSVC\14.23.28105\INCLUDE\SAL.H
D:\PROGRAMS\IDES\VISUALSTUDIO\VC\TOOLS\MSVC\14.23.28105\INCLUDE\CONCURRENCYSAL.H
D:\PROGRAMS\IDES\VISUALSTUDIO\VC\TOOLS\MSVC\14.23.28105\INCLUDE\VADEFS.H
C:\PROGRAM FILES (X86)\WINDOWS KITS\10\INCLUDE\10.0.18362.0\UCRT\CORECRT.H
D:\PROGRAMS\IDES\VISUALSTUDIO\VC\TOOLS\MSVC\14.23.28105\INCLUDE\XKEYCHECK.H
C:\PROGRAM FILES (X86)\WINDOWS KITS\10\INCLUDE\10.0.18362.0\UCRT\CRTDBG.H
D:\PROGRAMS\IDES\VISUALSTUDIO\VC\TOOLS\MSVC\14.23.28105\INCLUDE\VCRUNTIME_NEW_DEBUG.H
D:\PROGRAMS\IDES\VISUALSTUDIO\VC\TOOLS\MSVC\14.23.28105\INCLUDE\VCRUNTIME_NEW.H
D:\PROGRAMS\IDES\VISUALSTUDIO\VC\TOOLS\MSVC\14.23.28105\INCLUDE\USE_ANSI.H
D:\PROGRAMS\IDES\VISUALSTUDIO\VC\TOOLS\MSVC\14.23.28105\INCLUDE\CSTDLIB
C:\PROGRAM FILES (X86)\WINDOWS KITS\10\INCLUDE\10.0.18362.0\UCRT\MATH.H
C:\PROGRAM FILES (X86)\WINDOWS KITS\10\INCLUDE\10.0.18362.0\UCRT\CORECRT_MATH.H
C:\PROGRAM FILES (X86)\WINDOWS KITS\10\INCLUDE\10.0.18362.0\UCRT\STDLIB.H
C:\PROGRAM FILES (X86)\WINDOWS KITS\10\INCLUDE\10.0.18362.0\UCRT\CORECRT_MALLOC.H
C:\PROGRAM FILES (X86)\WINDOWS KITS\10\INCLUDE\10.0.18362.0\UCRT\CORECRT_SEARCH.H
C:\PROGRAM FILES (X86)\WINDOWS KITS\10\INCLUDE\10.0.18362.0\UCRT\STDDEF.H
C:\PROGRAM FILES (X86)\WINDOWS KITS\10\INCLUDE\10.0.18362.0\UCRT\CORECRT_WSTDLIB.H
D:\PROGRAMS\IDES\VISUALSTUDIO\VC\TOOLS\MSVC\14.23.28105\INCLUDE\LIMITS.H
D:\PROGRAMS\IDES\VISUALSTUDIO\VC\TOOLS\MSVC\14.23.28105\INCLUDE\XTGMATH.H
D:\PROGRAMS\IDES\VISUALSTUDIO\VC\TOOLS\MSVC\14.23.28105\INCLUDE\XTR1COMMON
^C:\USERS\DASHA\DESKTOP\TEST_TASK_SOLOVIOVA\SOURCE\GAME.CPP
D:\PROGRAMS\IDES\VISUALSTUDIO\VC\TOOLS\MSVC\14.23.28105\BIN\HOSTX86\X64\1049\CLUI.DLL
C:\WINDOWS\GLOBALIZATION\SORTING\SORTDEFAULT.NLS
C:\WINDOWS\SYSTEM32\TZRES.DLL
C:\USERS\DASHA\DESKTOP\TEST_TASK_SOLOVIOVA\SOURCE\FRAMEWORK.H
D:\PROGRAMS\IDES\VISUALSTUDIO\VC\TOOLS\MSVC\14.23.28105\INCLUDE\VECTOR
D:\PROGRAMS\IDES\VISUALSTUDIO\VC\TOOLS\MSVC\14.23.28105\INCLUDE\YVALS_CORE.H
D:\PROGRAMS\IDES\VISUALSTUDIO\VC\TOOLS\MSVC\14.23.28105\INCLUDE\CRTDEFS.H
D:\PROGRAMS\IDES\VISUALSTUDIO\VC\TOOLS\MSVC\14.23.28105\INCLUDE\VCRUNTIME.H
D:\PROGRAMS\IDES\VISUALSTUDIO\VC\TOOLS\MSVC\14.23.28105\INCLUDE\SAL.H
D:\PROGRAMS\IDES\VISUALSTUDIO\VC\TOOLS\MSVC\14.23.28105\INCLUDE\CONCURRENCYSAL.H
D:\PROGRAMS\IDES\VISUALSTUDIO\VC\TOOLS\MSVC\14.23.28105\INCLUDE\VADEFS.H
C:\PROGRAM FILES (X86)\WINDOWS KITS\10\INCLUDE\10.0.18362.0\UCRT\CORECRT.H
D:\PROGRAMS\IDES\VISUALSTUDIO\VC\TOOLS\MSVC\14.23.28105\INCLUDE\XKEYCHECK.H
D:\PROGRAMS\IDES\VISUALSTUDIO\VC\TOOLS\MSVC\14.23.28105\INCLUDE\XMEMORY
D:\PROGRAMS\IDES\VISUALSTUDIO\VC\TOOLS\MSVC\14.23.28105\INCLUDE\CSTDINT
D:\PROGRAMS\IDES\VISUALSTUDIO\VC\TOOLS\MSVC\14.23.28105\INCLUDE\YVALS.H
C:\PROGRAM FILES (X86)\WINDOWS KITS\10\INCLUDE\10.0.18362.0\UCRT\CRTDBG.H
D:\PROGRAMS\IDES\VISUALSTUDIO\VC\TOOLS\MSVC\14.23.28105\INCLUDE\VCRUNTIME_NEW_DEBUG.H
D:\PROGRAMS\IDES\VISUALSTUDIO\VC\TOOLS\MSVC\14.23.28105\INCLUDE\VCRUNTIME_NEW.H
D:\PROGRAMS\IDES\VISUALSTUDIO\VC\TOOLS\MSVC\14.23.28105\INCLUDE\USE_ANSI.H
D:\PROGRAMS\IDES\VISUALSTUDIO\VC\TOOLS\MSVC\14.23.28105\INCLUDE\STDINT.H
D:\PROGRAMS\IDES\VISUALSTUDIO\VC\TOOLS\MSVC\14.23.28105\INCLUDE\CSTDLIB
C:\PROGRAM FILES (X86)\WINDOWS KITS\10\INCLUDE\10.0.18362.0\UCRT\MATH.H
C:\PROGRAM FILES (X86)\WINDOWS KITS\10\INCLUDE\10.0.18362.0\UCRT\CORECRT_MATH.H
C:\PROGRAM FILES (X86)\WINDOWS KITS\10\INCLUDE\10.0.18362.0\UCRT\STDLIB.H
C:\PROGRAM FILES (X86)\WINDOWS KITS\10\INCLUDE\10.0.18362.0\UCRT\CORECRT_MALLOC.H
C:\PROGRAM FILES (X86)\WINDOWS KITS\10\INCLUDE\10.0.18362.0\UCRT\CORECRT_SEARCH.H
C:\PROGRAM FILES (X86)\WINDOWS KITS\10\INCLUDE\10.0.18362.0\UCRT\STDDEF.H
C:\PROGRAM FILES (X86)\WINDOWS KITS\10\INCLUDE\10.0.18362.0\UCRT\CORECRT_WSTDLIB.H
D:\PROGRAMS\IDES\VISUALSTUDIO\VC\TOOLS\MSVC\14.23.28105\INCLUDE\LIMITS.H
D:\PROGRAMS\IDES\VISUALSTUDIO\VC\TOOLS\MSVC\14.23.28105\INCLUDE\LIMITS
D:\PROGRAMS\IDES\VISUALSTUDIO\VC\TOOLS\MSVC\14.23.28105\INCLUDE\CFLOAT
C:\PROGRAM FILES (X86)\WINDOWS KITS\10\INCLUDE\10.0.18362.0\UCRT\FLOAT.H
D:\PROGRAMS\IDES\VISUALSTUDIO\VC\TOOLS\MSVC\14.23.28105\INCLUDE\CLIMITS
D:\PROGRAMS\IDES\VISUALSTUDIO\VC\TOOLS\MSVC\14.23.28105\INCLUDE\CWCHAR
D:\PROGRAMS\IDES\VISUALSTUDIO\VC\TOOLS\MSVC\14.23.28105\INCLUDE\CSTDIO
C:\PROGRAM FILES (X86)\WINDOWS KITS\10\INCLUDE\10.0.18362.0\UCRT\STDIO.H
C:\PROGRAM FILES (X86)\WINDOWS KITS\10\INCLUDE\10.0.18362.0\UCRT\CORECRT_WSTDIO.H
C:\PROGRAM FILES (X86)\WINDOWS KITS\10\INCLUDE\10.0.18362.0\UCRT\CORECRT_STDIO_CONFIG.H
C:\PROGRAM FILES (X86)\WINDOWS KITS\10\INCLUDE\10.0.18362.0\UCRT\WCHAR.H
C:\PROGRAM FILES (X86)\WINDOWS KITS\10\INCLUDE\10.0.18362.0\UCRT\CORECRT_MEMCPY_S.H
C:\PROGRAM FILES (X86)\WINDOWS KITS\10\INCLUDE\10.0.18362.0\UCRT\ERRNO.H
D:\PROGRAMS\IDES\VISUALSTUDIO\VC\TOOLS\MSVC\14.23.28105\INCLUDE\VCRUNTIME_STRING.H
C:\PROGRAM FILES (X86)\WINDOWS KITS\10\INCLUDE\10.0.18362.0\UCRT\CORECRT_WCONIO.H
C:\PROGRAM FILES (X86)\WINDOWS KITS\10\INCLUDE\10.0.18362.0\UCRT\CORECRT_WCTYPE.H
C:\PROGRAM FILES (X86)\WINDOWS KITS\10\INCLUDE\10.0.18362.0\UCRT\CORECRT_WDIRECT.H
C:\PROGRAM FILES (X86)\WINDOWS KITS\10\INCLUDE\10.0.18362.0\UCRT\CORECRT_WIO.H
C:\PROGRAM FILES (X86)\WINDOWS KITS\10\INCLUDE\10.0.18362.0\UCRT\CORECRT_SHARE.H
C:\PROGRAM FILES (X86)\WINDOWS KITS\10\INCLUDE\10.0.18362.0\UCRT\CORECRT_WPROCESS.H
C:\PROGRAM FILES (X86)\WINDOWS KITS\10\INCLUDE\10.0.18362.0\UCRT\CORECRT_WSTRING.H
C:\PROGRAM FILES (X86)\WINDOWS KITS\10\INCLUDE\10.0.18362.0\UCRT\CORECRT_WTIME.H
C:\PROGRAM FILES (X86)\WINDOWS KITS\10\INCLUDE\10.0.18362.0\UCRT\SYS\STAT.H
C:\PROGRAM FILES (X86)\WINDOWS KITS\10\INCLUDE\10.0.18362.0\UCRT\SYS\TYPES.H
D:\PROGRAMS\IDES\VISUALSTUDIO\VC\TOOLS\MSVC\14.23.28105\INCLUDE\XSTDDEF
D:\PROGRAMS\IDES\VISUALSTUDIO\VC\TOOLS\MSVC\14.23.28105\INCLUDE\CSTDDEF
D:\PROGRAMS\IDES\VISUALSTUDIO\VC\TOOLS\MSVC\14.23.28105\INCLUDE\XTR1COMMON
D:\PROGRAMS\IDES\VISUALSTUDIO\VC\TOOLS\MSVC\14.23.28105\INCLUDE\INITIALIZER_LIST
D:\PROGRAMS\IDES\VISUALSTUDIO\VC\TOOLS\MSVC\14.23.28105\INCLUDE\NEW
D:\PROGRAMS\IDES\VISUALSTUDIO\VC\TOOLS\MSVC\14.23.28105\INCLUDE\EXCEPTION
D:\PROGRAMS\IDES\VISUALSTUDIO\VC\TOOLS\MSVC\14.23.28105\INCLUDE\TYPE_TRAITS
C:\PROGRAM FILES (X86)\WINDOWS KITS\10\INCLUDE\10.0.18362.0\UCRT\MALLOC.H
D:\PROGRAMS\IDES\VISUALSTUDIO\VC\TOOLS\MSVC\14.23.28105\INCLUDE\VCRUNTIME_EXCEPTION.H
D:\PROGRAMS\IDES\VISUALSTUDIO\VC\TOOLS\MSVC\14.23.28105\INCLUDE\EH.H
C:\PROGRAM FILES (X86)\WINDOWS KITS\10\INCLUDE\10.0.18362.0\UCRT\CORECRT_TERMINATE.H
D:\PROGRAMS\IDES\VISUALSTUDIO\VC\TOOLS\MSVC\14.23.28105\INCLUDE\XATOMIC.H
D:\PROGRAMS\IDES\VISUALSTUDIO\VC\TOOLS\MSVC\14.23.28105\INCLUDE\INTRIN0.H
D:\PROGRAMS\IDES\VISUALSTUDIO\VC\TOOLS\MSVC\14.23.28105\INCLUDE\XUTILITY
D:\PROGRAMS\IDES\VISUALSTUDIO\VC\TOOLS\MSVC\14.23.28105\INCLUDE\CSTRING
C:\PROGRAM FILES (X86)\WINDOWS KITS\10\INCLUDE\10.0.18362.0\UCRT\STRING.H
C:\PROGRAM FILES (X86)\WINDOWS KITS\10\INCLUDE\10.0.18362.0\UCRT\CORECRT_MEMORY.H
D:\PROGRAMS\IDES\VISUALSTUDIO\VC\TOOLS\MSVC\14.23.28105\INCLUDE\UTILITY
C:\PROGRAM FILES (X86)\WINDOWS KITS\10\INCLUDE\10.0.18362.0\UCRT\TIME.H
C:\USERS\DASHA\DESKTOP\TEST_TASK_SOLOVIOVA\SOURCE\MOVINGOBJECTSDATA.H
C:\USERS\DASHA\DESKTOP\TEST_TASK_SOLOVIOVA\SOURCE\VECTOR2D.H
D:\PROGRAMS\IDES\VISUALSTUDIO\VC\TOOLS\MSVC\14.23.28105\INCLUDE\SET
D:\PROGRAMS\IDES\VISUALSTUDIO\VC\TOOLS\MSVC\14.23.28105\INCLUDE\XTREE
C:\USERS\DASHA\DESKTOP\TEST_TASK_SOLOVIOVA\SOURCE\SPRITESDATA.H
C:\USERS\DASHA\DESKTOP\TEST_TASK_SOLOVIOVA\SOURCE\SCREENSPACE.H
C:\USERS\DASHA\DESKTOP\TEST_TASK_SOLOVIOVA\SOURCE\GRID.H
C:\USERS\DASHA\DESKTOP\TEST_TASK_SOLOVIOVA\SOURCE\PLAYER.H
C:\USERS\DASHA\DESKTOP\TEST_TASK_SOLOVIOVA\SOURCE\COLLISIONHANDLER.H
D:\PROGRAMS\IDES\VISUALSTUDIO\VC\TOOLS\MSVC\14.23.28105\INCLUDE\ALGORITHM
D:\PROGRAMS\IDES\VISUALSTUDIO\VC\TOOLS\MSVC\14.23.28105\INCLUDE\STRING
D:\PROGRAMS\IDES\VISUALSTUDIO\VC\TOOLS\MSVC\14.23.28105\INCLUDE\XSTRING
D:\PROGRAMS\IDES\VISUALSTUDIO\VC\TOOLS\MSVC\14.23.28105\INCLUDE\IOSFWD
D:\PROGRAMS\IDES\VISUALSTUDIO\VC\TOOLS\MSVC\14.23.28105\INCLUDE\CCTYPE
C:\PROGRAM FILES (X86)\WINDOWS KITS\10\INCLUDE\10.0.18362.0\UCRT\CTYPE.H
D:\PROGRAMS\IDES\VISUALSTUDIO\VC\TOOLS\MSVC\14.23.28105\INCLUDE\IOSTREAM
D:\PROGRAMS\IDES\VISUALSTUDIO\VC\TOOLS\MSVC\14.23.28105\INCLUDE\ISTREAM
D:\PROGRAMS\IDES\VISUALSTUDIO\VC\TOOLS\MSVC\14.23.28105\INCLUDE\OSTREAM
D:\PROGRAMS\IDES\VISUALSTUDIO\VC\TOOLS\MSVC\14.23.28105\INCLUDE\IOS
D:\PROGRAMS\IDES\VISUALSTUDIO\VC\TOOLS\MSVC\14.23.28105\INCLUDE\XLOCNUM
D:\PROGRAMS\IDES\VISUALSTUDIO\VC\TOOLS\MSVC\14.23.28105\INCLUDE\CMATH
D:\PROGRAMS\IDES\VISUALSTUDIO\VC\TOOLS\MSVC\14.23.28105\INCLUDE\XTGMATH.H
D:\PROGRAMS\IDES\VISUALSTUDIO\VC\TOOLS\MSVC\14.23.28105\INCLUDE\STREAMBUF
D:\PROGRAMS\IDES\VISUALSTUDIO\VC\TOOLS\MSVC\14.23.28105\INCLUDE\XIOSBASE
C:\PROGRAM FILES (X86)\WINDOWS KITS\10\INCLUDE\10.0.18362.0\UCRT\SHARE.H
D:\PROGRAMS\IDES\VISUALSTUDIO\VC\TOOLS\MSVC\14.23.28105\INCLUDE\SYSTEM_ERROR
D:\PROGRAMS\IDES\VISUALSTUDIO\VC\TOOLS\MSVC\14.23.28105\INCLUDE\CERRNO
D:\PROGRAMS\IDES\VISUALSTUDIO\VC\TOOLS\MSVC\14.23.28105\INCLUDE\STDEXCEPT
D:\PROGRAMS\IDES\VISUALSTUDIO\VC\TOOLS\MSVC\14.23.28105\INCLUDE\XCALL_ONCE.H
D:\PROGRAMS\IDES\VISUALSTUDIO\VC\TOOLS\MSVC\14.23.28105\INCLUDE\XERRC.H
D:\PROGRAMS\IDES\VISUALSTUDIO\VC\TOOLS\MSVC\14.23.28105\INCLUDE\XLOCALE
D:\PROGRAMS\IDES\VISUALSTUDIO\VC\TOOLS\MSVC\14.23.28105\INCLUDE\MEMORY
D:\PROGRAMS\IDES\VISUALSTUDIO\VC\TOOLS\MSVC\14.23.28105\INCLUDE\TYPEINFO
D:\PROGRAMS\IDES\VISUALSTUDIO\VC\TOOLS\MSVC\14.23.28105\INCLUDE\VCRUNTIME_TYPEINFO.H
D:\PROGRAMS\IDES\VISUALSTUDIO\VC\TOOLS\MSVC\14.23.28105\INCLUDE\XFACET
D:\PROGRAMS\IDES\VISUALSTUDIO\VC\TOOLS\MSVC\14.23.28105\INCLUDE\XLOCINFO
D:\PROGRAMS\IDES\VISUALSTUDIO\VC\TOOLS\MSVC\14.23.28105\INCLUDE\XLOCINFO.H
C:\PROGRAM FILES (X86)\WINDOWS KITS\10\INCLUDE\10.0.18362.0\UCRT\LOCALE.H
